synthetic_data_00 • SmoothPLS
…
convert_to_wide_format

id_df_long = convert_to_wide_format(id_df_regul)
id_df_long
#> # A tibble: 50 × 22
#>       id    t0    t2    t4    t6      t8     t10    t12    t14    t16    t18
#>    <int> <dbl> <dbl> <dbl> <dbl>   <dbl>   <dbl>  <dbl>  <dbl>  <dbl>  <dbl>
#>  1     1 1.26  1.05  0.611 0.577  0.390   0.264  -0.329 -0.414 -0.850 -1.17 
#>  2     2 0.938 0.743 0.571 0.299 -0.107  -0.0371 -0.348 -0.735 -0.824 -1.14 
#>  3     3 1.08  0.792 0.684 0.433  0.300   0.291  -0.369 -0.576 -0.760 -0.995
#>  4     4 1.39  0.975 0.538 0.491 -0.0526  0.0217 -0.182 -0.509 -0.739 -0.968
#>  5     5 1.44  0.619 0.740 0.412 -0.0584 -0.291  -0.718 -0.518 -0.866 -0.879
#>  6     6 0.988 0.841 0.472 0.530  0.0314  0.0522 -0.179 -0.546 -0.751 -1.28 
#>  7     7 1.11  0.941 0.559 0.297  0.227  -0.572  -0.468 -0.564 -1.07  -0.774
#>  8     8 1.14  0.602 0.399 0.423  0.165   0.0330 -0.232 -0.398 -0.763 -1.08 
#>  9     9 1.32  1.03  0.717 0.393  0.254  -0.0604 -0.406 -0.586 -0.782 -1.15 
#> 10    10 1.18  0.847 1.00  0.414  0.137  -0.117  -0.467 -0.640 -0.685 -1.32 
#> # ℹ 40 more rows
#> # ℹ 11 more variables: t20 <dbl>, t22 <dbl>, t24 <dbl>, t26 <dbl>, t28 <dbl>,
#> #   t30 <dbl>, t32 <dbl>, t34 <dbl>, t36 <dbl>, t38 <dbl>, t40 <dbl>
…
