smoothPLS_ScalarFD_04 • SmoothPLS
…
convert_to_wide_format

df_wide = convert_to_wide_format(df_regul)
df_wide
#> # A tibble: 100 × 22
#>       id    t0    t5     t10    t15    t20   t25   t30   t35   t40   t45    t50
#>    <int> <dbl> <dbl>   <dbl>  <dbl>  <dbl> <dbl> <dbl> <dbl> <dbl> <dbl>  <dbl>
#>  1     1 1.26  0.535  0.264  -0.603 -1.32  -1.86 -2.02 -2.48 -1.74 -1.49 -0.827
#>  2     2 0.938 0.646 -0.0371 -0.880 -0.990 -1.69 -2.24 -2.21 -2.10 -1.74 -1.10 
#>  3     3 1.08  0.438  0.291  -0.872 -1.50  -1.83 -1.83 -1.92 -1.78 -1.76 -1.12 
#>  4     4 1.39  0.455  0.0217 -0.805 -1.27  -1.63 -1.95 -2.00 -1.89 -1.68 -0.695
#>  5     5 1.44  0.595 -0.291  -0.641 -1.28  -1.67 -2.09 -1.98 -1.83 -1.52 -0.921
#>  6     6 0.988 0.480  0.0522 -0.810 -0.975 -1.71 -1.80 -2.08 -1.62 -1.64 -1.26 
#>  7     7 1.11  0.485 -0.572  -0.884 -1.24  -1.58 -1.78 -1.85 -1.97 -1.60 -1.04 
#>  8     8 1.14  0.508  0.0330 -0.735 -1.11  -1.65 -1.88 -2.02 -1.89 -1.49 -0.857
#>  9     9 1.32  0.463 -0.0604 -0.627 -1.33  -1.51 -1.71 -1.83 -1.94 -1.32 -1.46 
#> 10    10 1.18  0.572 -0.117  -0.521 -1.34  -1.87 -1.88 -1.85 -1.85 -1.63 -0.933
#> # ℹ 90 more rows
#> # ℹ 10 more variables: t55 <dbl>, t60 <dbl>, t65 <dbl>, t70 <dbl>, t75 <dbl>,
#> #   t80 <dbl>, t85 <dbl>, t90 <dbl>, t95 <dbl>, t100 <dbl>
…
