multivariate_smoothPLS_04 • SmoothPLS
…
df_sfd_long = convert_to_wide_format(df_sfd_regul)
df_sfd_long
#> # A tibble: 50 × 102
#>       id   `0`   `1`   `2`   `3`   `4`   `5`   `6`     `7`     `8`      `9`
#>    <int> <dbl> <dbl> <dbl> <dbl> <dbl> <dbl> <dbl>   <dbl>   <dbl>    <dbl>
#>  1     1 1.26  0.719 1.05  0.730 0.611 0.535 0.577 0.00211  0.390   0.0862 
#>  2     2 0.938 0.966 0.743 0.496 0.571 0.646 0.299 0.352   -0.107   0.00228
#>  3     3 1.08  0.842 0.792 0.459 0.684 0.438 0.433 0.219    0.300   0.0347 
#>  4     4 1.39  1.17  0.975 0.487 0.538 0.455 0.491 0.245   -0.0526  0.263  
#>  5     5 1.44  0.758 0.619 0.840 0.740 0.595 0.412 0.322   -0.0584  0.105  
#>  6     6 0.988 0.863 0.841 0.793 0.472 0.480 0.530 0.245    0.0314 -0.0308 
#>  7     7 1.11  0.715 0.941 0.672 0.559 0.485 0.297 0.00222  0.227   0.0147 
#>  8     8 1.14  0.817 0.602 0.842 0.399 0.508 0.423 0.346    0.165  -0.0993 
#>  9     9 1.32  1.21  1.03  0.554 0.717 0.463 0.393 0.441    0.254  -0.257  
#> 10    10 1.18  1.17  0.847 0.776 1.00  0.572 0.414 0.0599   0.137  -0.0226 
#> # ℹ 40 more rows
#> # ℹ 91 more variables: `10` <dbl>, `11` <dbl>, `12` <dbl>, `13` <dbl>,
#> #   `14` <dbl>, `15` <dbl>, `16` <dbl>, `17` <dbl>, `18` <dbl>, `19` <dbl>,
#> #   `20` <dbl>, `21` <dbl>, `22` <dbl>, `23` <dbl>, `24` <dbl>, `25` <dbl>,
#> #   `26` <dbl>, `27` <dbl>, `28` <dbl>, `29` <dbl>, `30` <dbl>, `31` <dbl>,
#> #   `32` <dbl>, `33` <dbl>, `34` <dbl>, `35` <dbl>, `36` <dbl>, `37` <dbl>,
#> #   `38` <dbl>, `39` <dbl>, `40` <dbl>, `41` <dbl>, `42` <dbl>, `43` <dbl>, …
…
